{
    "data": [
        {
            "soid": 92,
            "soname": "-",
            "sophone": "09035707583",
            "sotext": "خواهشا این خیابون گلستانک رو درست کنیدب اسفالتش داغون بعد بریدگی سه راه افشار رو مسدود کنید دیگه هیچ ترافیکی نمیشه",
            "soserial": "09035707583",
            "sostatus": 4,
            "soincharge": "salam ok",
            "sodone": 0,
            "sopub": 1,
            "sotime": "1529352963",
            "pic": "152935296309035707583.jpg",
            "lat": 35.765278,
            "lng": 50.913551,
            "gov": 5,
            "view": 1,
            "seen": 0,
            "usrimg": "",
            "lk": 0
        },
        {
            "soid": 94,
            "soname": "راد",
            "sophone": "09122614105",
            "sotext": "سلام مخلصم",
            "soserial": "09123663047",
            "sostatus": 1,
            "soincharge": "",
            "sodone": 0,
            "sopub": 1,
            "sotime": "1529384024",
            "pic": "152938402409123663047.jpg",
            "lat": 35.762699,
            "lng": 50.914791,
            "gov": 4,
            "view": 1,
            "seen": 0,
            "usrimg": "",
            "lk": 0
        },
        {
            "soid": 106,
            "soname": "مهدی قمری",
            "sophone": "09126661852",
            "sotext": "سلام\nچرخ های سطل زباله شکسته و باعث می شه که سطل بعد از پر شدن چپ بشه \nلطفا پیگیری کنید",
            "soserial": "09126661852",
            "sostatus": 3,
            "soincharge": "با سلام و احترام&nbsp;<br>موضوع مورد بررسي قرار گرفته و نسبت به رفع موارد مشابه اقدام مي گردد. با تشكر .",
            "sodone": 0,
            "sopub": 1,
            "sotime": "1529819052",
            "pic": "152981905209126661852.jpg",
            "lat": 35.742599,
            "lng": 50.898979,
            "gov": 5,
            "view": 1,
            "seen": 11,
            "usrimg": "",
            "lk": 0
        },
        {
            "soid": 113,
            "soname": "-",
            "sophone": "09393297136",
            "sotext": "سلام\n",
            "soserial": "09393297136",
            "sostatus": 1,
            "soincharge": "",
            "sodone": 0,
            "sopub": null,
            "sotime": "1530129663",
            "pic": "1530129663.jpg",
            "lat": 0,
            "lng": 0,
            "gov": 5,
            "view": 1,
            "seen": 0,
            "usrimg": "",
            "lk": 0
        },
        {
            "soid": 114,
            "soname": "matin gh",
            "sophone": "09393839058",
            "sotext": "راه اندازی سامانه دهکده هوشمند در محمد شهر کرج\nاستان البرز به دست استاندار محترم البرز",
            "soserial": "09393839058",
            "sostatus": 1,
            "soincharge": "پاسخ",
            "sodone": 0,
            "sopub": 1,
            "sotime": "1530158191",
            "pic": "153015819109393839058.jpg",
            "lat": 35.7472,
            "lng": 50.903511,
            "gov": 1,
            "view": 1,
            "seen": 6,
            "usrimg": "",
            "lk": 0
        },
        {
            "soid": 123,
            "soname": "-",
            "sophone": "09122622676",
            "sotext": "با سلام",
            "soserial": "09122622676",
            "sostatus": 1,
            "soincharge": "",
            "sodone": 0,
            "sopub": 1,
            "sotime": "1531296969",
            "pic": "1531296969.jpg",
            "lat": 0,
            "lng": 0,
            "gov": 5,
            "view": 1,
            "seen": 0,
            "usrimg": "",
            "lk": 0
        },
        {
            "soid": 138,
            "soname": "-",
            "sophone": "09127650049",
            "sotext": "محمد شهر بلوار امام خمینی خرابی آسفالت\n",
            "soserial": "09127650049",
            "sostatus": 4,
            "soincharge": "انجام شد",
            "sodone": 0,
            "sopub": 1,
            "sotime": "1531628114",
            "pic": "153162811409127650049.jpg",
            "lat": 35.762699,
            "lng": 50.914791,
            "gov": 5,
            "view": 1,
            "seen": 13,
            "usrimg": "",
            "lk": 0
        },
        {
            "soid": 179,
            "soname": "morteza kourani",
            "sophone": "09358655165",
            "sotext": "سلام مسئول جمع اوری سگهای ولگرد تومحمدشهرچه کسی است نزدیک به۱ساعت که یک سگ ولگرددرخیابان دستغیب داره چرخ میزنه وایجادترس میکنه برای عابرین مخصوصا بانوان لطفا رسیدگی شود",
            "soserial": "09358655165",
            "sostatus": 1,
            "soincharge": "",
            "sodone": 0,
            "sopub": 0,
            "sotime": "1533217643",
            "pic": "1533217643.jpg",
            "lat": 35.75948,
            "lng": 50.919285,
            "gov": 7,
            "view": 1,
            "seen": 0,
            "usrimg": "",
            "lk": 0
        },
        {
            "soid": 181,
            "soname": "-",
            "sophone": "09301002842",
            "sotext": "دپوی نخاله و زباله در دشت بهشت کوی یاس ",
            "soserial": "09301002842",
            "sostatus": 4,
            "soincharge": "",
            "sodone": 0,
            "sopub": 0,
            "sotime": "1533472852",
            "pic": "153347285209301002842.jpg",
            "lat": 35.768929,
            "lng": 50.911953,
            "gov": 5,
            "view": 1,
            "seen": 0,
            "usrimg": "",
            "lk": 0
        },
        {
            "soid": 183,
            "soname": "morteza kourani",
            "sophone": "09358655165",
            "sotext": "سلام درخیابان بختیاری داخل خیابان اقدام به کندن چاه فاظلاب میکنند درروزروشن آیاخلاف قانون نیست",
            "soserial": "09358655165",
            "sostatus": 4,
            "soincharge": "",
            "sodone": 0,
            "sopub": 0,
            "sotime": "1533577702",
            "pic": "153357770209358655165.jpg",
            "lat": 35.761833,
            "lng": 50.917488,
            "gov": 7,
            "view": 1,
            "seen": 0,
            "usrimg": "",
            "lk": 0
        }
    ],
    "links": {
        "first": "http://admin.myzibadasht.ir/api/dehyargetsocial?page=1",
        "last": "http://admin.myzibadasht.ir/api/dehyargetsocial?page=4",
        "prev": null,
        "next": "http://admin.myzibadasht.ir/api/dehyargetsocial?page=2"
    },
    "meta": {
        "current_page": 1,
        "from": 1,
        "last_page": 4,
        "path": "http://admin.myzibadasht.ir/api/dehyargetsocial",
        "per_page": 10,
        "to": 10,
        "total": 31
    }
}
